{
  "project_info": {
    "project_number": "545463532704",
    "project_id": "lodge-78971",
    "storage_bucket": "lodge-78971.appspot.com"
  },
  "client": [
    {
      "client_info": {
        "mobilesdk_app_id": "1:545463532704:android:7f20949e5eb862ff425dc5",
        "android_client_info": {
          "package_name": "com.example.lodge"
        }
      },
      "oauth_client": [
        {
          "client_id": "545463532704-37nsoq3c19gpcu3vlclqg5ml01h2ckf2.apps.googleusercontent.com",
          "client_type": 3
        }
      ],
      "api_key": [
        {
          "current_key": "AIzaSyAoMFRdte9NWcfBw3_45scDaf9GvpDdU4g"
        }
      ],
      "services": {
        "appinvite_service": {
          "other_platform_oauth_client": [
            {
              "client_id": "545463532704-37nsoq3c19gpcu3vlclqg5ml01h2ckf2.apps.googleusercontent.com",
              "client_type": 3
            }
          ]
        }
      }
    },
    {
      "client_info": {
        "mobilesdk_app_id": "1:545463532704:android:94b389704c3a2788425dc5",
        "android_client_info": {
          "package_name": "com.lodge.lodge_flutter"
        }
      },
      "oauth_client": [
        {
          "client_id": "545463532704-g8a10r6vnndccepi384mukleesti557r.apps.googleusercontent.com",
          "client_type": 1,
          "android_info": {
            "package_name": "com.lodge.lodge_flutter",
            "certificate_hash": "753d1977493b4b9c97905b291880c5452cb1d30b"
          }
        },
        {
          "client_id": "545463532704-37nsoq3c19gpcu3vlclqg5ml01h2ckf2.apps.googleusercontent.com",
          "client_type": 3
        }
      ],
      "api_key": [
        {
          "current_key": "AIzaSyAoMFRdte9NWcfBw3_45scDaf9GvpDdU4g"
        }
      ],
      "services": {
        "appinvite_service": {
          "other_platform_oauth_client": [
            {
              "client_id": "545463532704-37nsoq3c19gpcu3vlclqg5ml01h2ckf2.apps.googleusercontent.com",
              "client_type": 3
            }
          ]
        }
      }
    }
  ],
  "configuration_version": "1"
}